#531 - Eduz-Wez

owner = F19
controller = F19
add_core = F19
culture = sun_elf
religion = bulwari_sun_cult

base_tax = 2
base_production = 3
base_manpower = 3

trade_goods = naval_supplies

capital = ""

is_city = yes











add_permanent_province_modifier = {
	name = human_minority_coexisting_large
	duration = -1
}
