country_decisions = {

	pashaine_nation = {
		major = yes
		potential = {
			any_owned_province = {
					province_group = luna_river_basin
			}
			OR = {
				primary_culture = east_damerian
				primary_culture = vernman
			}
			NOT = { has_country_flag = formed_pashaine_flag }
			NOT = { tag = Z01 } #Empire of Anbennar
			NOT = { tag = A45 } #Istralore, loyal to Dameria
			NOT = { tag = A33 } #Verne, they'd want to reforge their kingdom
			NOT = { tag = A85 } #Magisterium shouldn't be forming anything
			
			OR = {
				ai = no
				is_playing_custom_nation = no
			}
			OR = {
				ai = no
				NOT = { exists = B59 }
			}
			is_colonial_nation = no
			OR = {
				is_former_colonial_nation = no
				AND = {
					is_former_colonial_nation = yes
					ai = no
				}
			}
			government = monarchy
			normal_or_historical_nations = yes
			was_never_end_game_tag_trigger = yes
		}
		
		provinces_to_highlight = {
			OR = {	
						province_id = 284	# Thanallen
						province_id = 329	# Bluehart
						province_id = 587	# Bellacaire
						province_id = 109	# Elvenbridge
						province_id = 327	# Cestaire
					
				}
			OR = {
				NOT = { owned_by = ROOT }
				NOT = { is_core = ROOT }
			}
		}
		
		allow = {
			is_at_war = no
			is_free_or_tributary_trigger = yes
			is_nomad = no			
			NOT = { exists = B59 }
			
			AND = {
					owns_core_province = 284	# Thanallen
					owns_core_province = 329	# Bluehart
					owns_core_province = 587	# Bellacaire
					owns_core_province = 109	# Elvenbridge
					owns_core_province = 327	# Cestaire
			}
		}
		
		effect = {
			284 = { #Thanallen
				move_capital_effect = yes
			}
			change_tag = B59
			if = {
				limit = {
					NOT = { government_rank = 2 }
				}
				set_government_rank = 2
			}
			change_primary_culture = pashainey
			every_owned_province = {
				limit = { province_group = luna_river_basin }
				change_culture = pashainey
			}
			
			upper_luna_area = {
				limit = {
					NOT = { owned_by = ROOT }
				}
				add_permanent_claim = B59
			}
			eastneck_area = {
				limit = {
					NOT = { owned_by = ROOT }
				}
				add_permanent_claim = B59
			}
			galeinn_area = {
				limit = {
					NOT = { owned_by = ROOT }
				}
				add_permanent_claim = B59
			}
			heartlands_area = {
				limit = {
					NOT = { owned_by = ROOT }
				}
				add_permanent_claim = B59
			}
			285  = { add_permanent_claim = B59 }
			331  = { add_permanent_claim = B59 }
			569  = { add_permanent_claim = B59 }
			
			add_country_modifier = {
				name = "centralization_modifier"
				duration = 7300
			}
			add_prestige = 50
			if = {
				limit = {
					has_custom_ideas = no
					OR = {
						ai = no
						AND = {
							ai = yes
							has_idea_group = default_ideas
						}
					}
				}
				country_event = { id = ideagroups.1 } #Swap Ideas
			}
			set_country_flag = formed_pashaine_flag
		}
		ai_will_do = {
			factor = 1
		}
	}
}
