# Do not change tags in here without changing every other reference to them.
# If adding new dieties, make sure they are uniquely named.

kayd_path = { #Wrath, War
	discipline = 0.025
	backrow_artillery_damage = 0.1
	
    allow = { 
		religion = soise_vio
    }
	
	sprite = 15
	
	ai_will_do = {
		factor = 1
	}
}

sicrheior_path = { #Expansion, colonial
	global_colonial_growth = 20
	native_uprising_chance = -0.25
	
    allow = { 
		religion = soise_vio
    }
	
	sprite = 16
	
	ai_will_do = {
		factor = 1
	}
}

dahvar_path = { #Fervor, religion
	tolerance_own = 1
	global_missionary_strength = 0.03
	
    allow = { 
		religion = soise_vio
    }
	
	sprite = 17
	
	ai_will_do = {
		factor = 1
	}
}

aelthanas_path = { #Prosperity, production
	global_trade_goods_size_modifier = 0.1
	
    allow = { 
		religion = soise_vio
    }
	
	sprite = 18
	
	ai_will_do = {
		factor = 1
	}
}

aist_cantir_path = { #Exchange, trade
	ship_power_propagation = 0.2
	caravan_power = 0.2
	
    allow = { 
		religion = soise_vio
    }
	
	sprite = 19
	
	ai_will_do = {
		factor = 1
	}
}

dea_cithe_path = { #Peace, stability
	stability_cost_modifier = -0.25
	global_unrest = -1.5
	
    allow = { 
		religion = soise_vio
    }
	
	sprite = 20
	
	ai_will_do = {
		factor = 1
	}
}

